{
  "version": "1.0.0-*",
  "buildOptions": {
    "emitEntryPoint": true
  },
  "dependencies": {
    "CarPriceAnalysis.Common.Abstraction": "1.0.0-*",
    "CarPriceAnalysis.Common.Business": "1.0.0-*",
    "CarPriceAnalysis.Common.Data": "1.0.0-*",
    "CarPriceAnalysis.Sync.Connector": "1.0.0-*",
    "Microsoft.EntityFrameworkCore.Design": {
      "version": "1.0.0-preview2-final",
      "type": "build"
    },
    "Microsoft.EntityFrameworkCore.SqlServer": "1.0.1",
    "Microsoft.Extensions.Configuration": "1.0.0",
    "Microsoft.Extensions.Configuration.FileExtensions": "1.0.0",
    "Microsoft.Extensions.Configuration.Json": "1.0.0"
  },
  "tools": {
    "Microsoft.EntityFrameworkCore.Tools": "1.0.0-preview2-final"
  },
  "frameworks": {
    "netcoreapp1.0": {
      "imports": "dnxcore50",
      "dependencies": {
        "Microsoft.NETCore.App": {
          "version": "1.0.1"
        },
        "System.ServiceModel.Duplex": "4.0.1",
        "System.ServiceModel.Http": "4.1.0",
        "System.ServiceModel.NetTcp": "4.1.0",
        "System.ServiceModel.Security": "4.0.1",
        "System.Xml.XmlSerializer": "4.0.11"
      }
    }
  },
  "runtimes": {
    "win7-x64": {}
  },
  "publishOptions": {
    "include": [
      "project.json",
      "run.cmd"
    ]
  }
}