{
  "version": "1.0.0-*",

  "dependencies": {
    "CarPriceAnalysis.Common.Abstraction": "1.0.0-*",
    "CarPriceAnalysis.Common.Model": "1.0.0-*",
    "Microsoft.EntityFrameworkCore": "1.0.1",
    "Microsoft.EntityFrameworkCore.Relational": "1.0.1",
    "Microsoft.EntityFrameworkCore.SqlServer": "1.0.1",
    "Microsoft.Extensions.Configuration.EnvironmentVariables": "1.0.0",
    "NETStandard.Library": "1.6.0"
  },

  "frameworks": {
    "netstandard1.6": {
      "imports": "dnxcore50"
    }
  }
}
